// Jest Snapshot v1, https://goo.gl/fbAQLP

exports[`Goal Overview can render an error free Goal Overview component 1`] = `
<section
  className="progress-info text-center overview-content"
>
  <article
    className="progress-info-item progress-info-goal-overview-title"
  >
    <h2
      className="level-txt goal-overview-title branding-primary-text"
      data-sel="progress-level-name"
    >
      Level 1
    </h2>
    <h4
      className="level-description"
      data-sel="progress-level-description"
    >
      Baseline + $2.50 per WO
    </h4>
  </article>
  <div
    className="divider"
  />
  <div
    className="item-wrapper"
  >
    <article
      className="progress-info-item progress-info-goal-item"
    >
      <h3>
        <span>
          progress.goalHeader
        </span>
      </h3>
      <h4
        className="goal-desc info-desc"
      >
        <strong>
          <span
            className=""
            data-sel="progress-goal-level-amount"
          >
            <span
              className="goal-label-amount"
            >
              13.91
            </span>
            <span
              className="goal-label-text"
              dangerouslySetInnerHTML={
                Object {
                  "__html": "&nbsp;average per work order&nbsp;",
                }
              }
            />
          </span>
        </strong>
      </h4>
    </article>
    <article
      className="progress-info-item progress-info-base-line-item"
    >
      <h3>
        <span>
          progress.baselineHeader
        </span>
      </h3>
      <h4
        className="info-desc"
      >
        <strong>
          <span
            className="baseline"
            data-sel="progress-goal-level-amount"
          >
            <span
              className="goal-label-amount"
            >
              11.41
            </span>
            <span
              className="goal-label-text"
              dangerouslySetInnerHTML={
                Object {
                  "__html": "&nbsp;average per work order&nbsp;",
                }
              }
            />
          </span>
        </strong>
      </h4>
    </article>
    <article
      className="progress-info-item progress-info-fixed-rate-payout-message-item"
    >
      <h3>
        <span>
          common.fixedRate.acceleratorHeader
        </span>
      </h3>
      <h4
        className="fixed-payout-desc info-desc"
        dangerouslySetInnerHTML={
          Object {
            "__html": "fixedPlusRatePayoutMessage",
          }
        }
      />
    </article>
  </div>
  <div
    className="divider"
  />
  <div>
    <article
      className="progress-info-item progress-info-bonus-item"
    >
      <h3>
        <span>
          progress.bonusHeader
        </span>
      </h3>
      <h4
        className="bonus-desc info-desc"
      >
        <span>
          common.bonus.fixedLabelText
        </span>
         
        <span>
          common.bonus.goalAchievementText
        </span>
      </h4>
    </article>
    <div
      className="divider"
    />
  </div>
  <article
    className="progress-info-item potential-award-amount"
  >
    <h3>
      <span>
        progress.potentialAwardHeader
      </span>
    </h3>
    <h4
      className="potential-award info-desc"
      data-sel="progress-goal-award-amount"
    >
      <span>
        200
      </span>
      <span
        className="potential-award"
      >
         
        Points
      </span>
    </h4>
  </article>
</section>
`;
