// Jest Snapshot v1, https://goo.gl/fbAQLP

exports[`Dashboard Progress bar component : renders without errors with the default props 1`] = `
<div
  className="dashboard-progress-bar"
>
  <span>
    0.2
  </span>
  <span>
    dashboard.tile.common.togoal
  </span>
  <div
    className="progress-bar"
  >
    <div
      className="progress-marker"
      style={
        Object {
          "left": "50%",
        }
      }
    >
      <svg
        className="cpd-icon"
        fill="#FFFFF"
        viewBox="0 0 45 61"
      >
        <path
          d="M1.5,22.71c0,18.68,21,36.79,21,36.79s21-18.11,21-36.79a21,21,0,1,0-42,0Z"
          stroke="#353a40"
        />
        <circle
          cx="22.5"
          cy="22.5"
          r="10"
          stroke="#353a40"
        />
      </svg>
      <div
        className="progress-line"
      />
      <span>
        0.5
      </span>
    </div>
    <div
      className="get-going progress-fill"
      style={
        Object {
          "width": "20%",
        }
      }
    />
  </div>
</div>
`;
