// Jest Snapshot v1, https://goo.gl/fbAQLP

exports[`ProgramBranding mapStateToProps should work without errors 1`] = `
Object {
  "heroImageUrl": "null",
  "primaryColor": "#0c7eac",
  "scopingSelector": "",
  "secondaryColor": "#0c7eac",
  "theme": "mountain",
}
`;
