// Jest Snapshot v1, https://goo.gl/fbAQLP

exports[`Progress should render without errors 1`] = `
<div
  className="sticky-container overview-wrapper"
>
  <header
    className="program-header-container with-calendar"
    role="presentation"
  >
    <div
      className="branding-hero-image"
    >
      <div
        className="program-header"
      >
        <div
          className="header-logo"
        >
          <img
            alt="Program Logo"
            height="auto"
            src="https://apiqa.farm1.honeycombsvc.com/hcapi/participantMedia/linda/logo/1518723263286_logo.png"
            width="100%"
          />
        </div>
        <div
          className="program-info"
        >
          <h1
            className="program-title"
            data-sel="goal-selection-program-name"
            id="programTitle"
          >
            DB UAT-AVE-no progress
          </h1>
          <span
            className="program-info-wrapper"
          >
            <h2
              className="date-label"
            >
              <span>
                programInfoHeader.programDates
              </span>
               
              <strong
                data-sel="goal-selection-program-dates"
              >
                <span>
                  2018-01-01T00:00:00-0600
                </span>
                 - 
                <span>
                  2018-12-31T23:59:59-0600
                </span>
              </strong>
            </h2>
          </span>
        </div>
        <aside
          className="goal-select-days-left in-progress"
        >
          <section
            className="days-left-container"
          >
            <span
              className="calendar-icon"
            >
              <svg
                className="cpd-icon"
                viewBox="0 0 24 24"
              >
                <path
                  d="M17.2,21h1.5c0.8,0,1.5-0.7,1.5-1.5V18c0-0.8-0.7-1.5-1.5-1.5h-1.5c-0.8,0-1.5,0.7-1.5,1.5v1.5 C15.8,20.3,16.4,21,17.2,21z M17.2,18h1.5v1.5h-1.5V18z M17.2,15h1.5c0.8,0,1.5-0.7,1.5-1.5V12c0-0.8-0.7-1.5-1.5-1.5h-1.5 c-0.8,0-1.5,0.7-1.5,1.5v1.5C15.8,14.3,16.4,15,17.2,15z M17.2,12h1.5v1.5h-1.5V12z M11.2,15h1.5c0.8,0,1.5-0.7,1.5-1.5V12 c0-0.8-0.7-1.5-1.5-1.5h-1.5c-0.8,0-1.5,0.7-1.5,1.5v1.5C9.8,14.3,10.4,15,11.2,15z M11.2,12h1.5v1.5h-1.5V12z M5.2,21h1.5 c0.8,0,1.5-0.7,1.5-1.5V18c0-0.8-0.7-1.5-1.5-1.5H5.2c-0.8,0-1.5,0.7-1.5,1.5v1.5C3.8,20.3,4.4,21,5.2,21z M5.2,18h1.5v1.5H5.2V18 z M20.2,1.5h-3V0.8c0-0.4-0.3-0.8-0.8-0.8c-0.4,0-0.8,0.3-0.8,0.8v0.8H8.2V0.8C8.2,0.3,7.9,0,7.5,0C7.1,0,6.8,0.3,6.8,0.8v0.8h-3 c-1.7,0-3,1.3-3,3V21c0,1.7,1.3,3,3,3h16.5c1.7,0,3-1.3,3-3V4.5C23.2,2.8,21.9,1.5,20.2,1.5z M21.8,21c0,0.8-0.7,1.5-1.5,1.5H3.8 c-0.8,0-1.5-0.7-1.5-1.5V7.5h19.5V21z M21.8,6H2.2V4.5C2.2,3.7,2.9,3,3.8,3h3v0.8c0,0.4,0.3,0.8,0.8,0.8c0.4,0,0.8-0.3,0.8-0.8V3 h7.5v0.8c0,0.4,0.3,0.8,0.8,0.8c0.4,0,0.8-0.3,0.8-0.8V3h3c0.8,0,1.5,0.7,1.5,1.5V6z M5.2,15h1.5c0.8,0,1.5-0.7,1.5-1.5V12 c0-0.8-0.7-1.5-1.5-1.5H5.2c-0.8,0-1.5,0.7-1.5,1.5v1.5C3.8,14.3,4.4,15,5.2,15z M5.2,12h1.5v1.5H5.2V12z M11.2,21h1.5 c0.8,0,1.5-0.7,1.5-1.5V18c0-0.8-0.7-1.5-1.5-1.5h-1.5c-0.8,0-1.5,0.7-1.5,1.5v1.5C9.8,20.3,10.4,21,11.2,21z M11.2,18h1.5v1.5 h-1.5V18z"
                />
              </svg>
            </span>
            <div
              className="days-left"
            >
              <span>
                <span
                  className="days-label days-left-2"
                >
                  2
                </span>
                 
                <span
                  className="days-left-label description"
                >
                  <span>
                    goalSelection.headerDaysLeft
                  </span>
                  <span>
                    progress.daysToEarnLabel
                  </span>
                </span>
              </span>
            </div>
          </section>
        </aside>
      </div>
    </div>
  </header>
  <div
    className="main-nav pill-bar"
    role="navigation"
  >
    <ul
      role="menu"
    >
      <li
        role="menuitem"
      >
        <a
          className="btn-scroll active branding-primary-button"
          data-sel="progress-nav-bar-progress"
          href="#progress"
          onClick={[Function]}
        >
          <span>
            paxProgress.navbar.progressLabel
          </span>
        </a>
      </li>
      <li
        role="menuitem"
      >
        <a
          className="btn-scroll"
          data-sel="progress-nav-bar-plan"
          href="#plan"
          onClick={[Function]}
        >
          <span>
            paxProgress.navbar.planLabel
          </span>
        </a>
      </li>
      <li
        role="menuitem"
      >
        <a
          className="btn-scroll"
          data-sel="progress-nav-bar-shop"
          href="#shop"
          onClick={[Function]}
        >
          <span>
            paxProgress.navbar.shopLabel
          </span>
        </a>
      </li>
      <li
        role="menuitem"
      >
        <a
          className="btn-scroll"
          data-sel="progress-nav-bar-rules"
          href="#rules"
          onClick={[Function]}
        >
          <span>
            paxProgress.navbar.rulesLabel
          </span>
        </a>
      </li>
    </ul>
  </div>
  <div
    className="progress"
    id="progress-container"
  >
    <section
      className="progress-wrapper overview-wrapper"
      id="progress"
      role="region"
    >
      <div
        className="content"
      >
        <div>
          <span>
            paxProgress.pageHeader.noProgress
          </span>
        </div>
        <section
          className="progress-info text-center overview-content"
        >
          <article
            className="progress-info-item progress-info-goal-overview-title"
          >
            <h2
              className="level-txt goal-overview-title branding-primary-text"
              data-sel="progress-level-name"
            >
              Level 1
            </h2>
            <h4
              className="level-description"
              data-sel="progress-level-description"
            >
              Baseline + $2.50 per WO
            </h4>
          </article>
          <div
            className="divider"
          />
          <div
            className="item-wrapper"
          >
            <article
              className="progress-info-item progress-info-goal-item"
            >
              <h3>
                <span>
                  progress.goalHeader
                </span>
              </h3>
              <h4
                className="goal-desc info-desc"
              >
                <strong>
                  <span
                    className=""
                    data-sel="progress-goal-level-amount"
                  >
                    <span
                      className="goal-label-amount"
                    >
                      13.91
                    </span>
                    <span
                      className="goal-label-text"
                      dangerouslySetInnerHTML={
                        Object {
                          "__html": "&nbsp;average per work order&nbsp;",
                        }
                      }
                    />
                  </span>
                </strong>
              </h4>
            </article>
            <article
              className="progress-info-item progress-info-base-line-item"
            >
              <h3>
                <span>
                  progress.baselineHeader
                </span>
              </h3>
              <h4
                className="info-desc"
              >
                <strong>
                  <span
                    className="baseline"
                    data-sel="progress-goal-level-amount"
                  >
                    <span
                      className="goal-label-amount"
                    >
                      11.41
                    </span>
                    <span
                      className="goal-label-text"
                      dangerouslySetInnerHTML={
                        Object {
                          "__html": "&nbsp;average per work order&nbsp;",
                        }
                      }
                    />
                  </span>
                </strong>
              </h4>
            </article>
            
          </div>
          <div
            className="divider"
          />
          <div>
            <article
              className="progress-info-item progress-info-bonus-item"
            >
              <h3>
                <span>
                  progress.bonusHeader
                </span>
              </h3>
              <h4
                className="bonus-desc info-desc"
              >
                <span>
                  common.bonus.fixedLabelText
                </span>
                 
                <span>
                  common.bonus.goalAchievementText
                </span>
              </h4>
            </article>
            <div
              className="divider"
            />
          </div>
          <article
            className="progress-info-item potential-award-amount"
          >
            <h3>
              <span>
                progress.potentialAwardHeader
              </span>
            </h3>
            <h4
              className="potential-award info-desc"
              data-sel="progress-goal-award-amount"
            >
              <span>
                200
              </span>
              <span
                className="potential-award"
              >
                 
                Points
              </span>
            </h4>
          </article>
        </section>
      </div>
    </section>
    <section
      className="my-plan-wrapper"
      id="plan"
      role="region"
    >
      <div
        className="content"
      >
        <span>
          paxProgress.plan.myPlanHeader
        </span>
        <div
          className="plan-set"
        >
          <div
            className="plan"
          >
            <div
              className="plan-item-list"
            />
            <div
              className="add-plan-set"
              onClick={[Function]}
            >
              <span
                className="icon-plus-circle branding-primary-text"
              >
                <svg
                  className="cpd-icon"
                  viewBox="0 0 24 24"
                >
                  <path
                    d="M16.5,11.2h-3.8V7.5c0-0.4-0.3-0.8-0.8-0.8c-0.4,0-0.8,0.3-0.8,0.8v3.8H7.5c-0.4,0-0.8,0.3-0.8,0.8c0,0.4,0.3,0.8,0.8,0.8 h3.8v3.8c0,0.4,0.3,0.8,0.8,0.8c0.4,0,0.8-0.3,0.8-0.8v-3.8h3.8c0.4,0,0.8-0.3,0.8-0.8C17.2,11.6,16.9,11.2,16.5,11.2z M12,0 C5.4,0,0,5.4,0,12c0,6.6,5.4,12,12,12s12-5.4,12-12C24,5.4,18.6,0,12,0z M12,22.5C6.2,22.5,1.5,17.8,1.5,12 C1.5,6.2,6.2,1.5,12,1.5S22.5,6.2,22.5,12C22.5,17.8,17.8,22.5,12,22.5z"
                  />
                </svg>
              </span>
              <span
                className="txt branding-secondary-text"
              >
                paxProgress.plan.addPlanSetLabel
              </span>
            </div>
          </div>
        </div>
      </div>
    </section>
    <section
      className="shop-wrapper branding-tinted"
      id="shop"
      role="region"
    >
      <div
        className="content"
      >
        <span>
          progress.shopHeader
        </span>
        <div
          className="shop-component"
        >
          <div>
            <span>
              shop.headline
            </span>
            <span>
              shop.subhead
            </span>
          </div>
          <ul
            className="shop-list shop-list-large"
          >
            <li
              className="shop-item catalog-shop-item"
              data-sel="welcome-shop-shopper"
            >
              <a
                aria-label="Shop"
                className="shop-item-anchor catalog-shop-item-anchor"
                href="#"
                onClick={[Function]}
              >
                <img
                  alt="happy woman on phone"
                  className="catalog-shop-item-img shop-item-img"
                  src={Object {}}
                />
              </a>
            </li>
            <li
              className="shop-item travel-shop-item"
              data-sel="welcome-shop-travel"
            >
              <a
                aria-label="Shop"
                className="shop-item-anchor travel-shop-item-anchor"
                href="#"
                onClick={[Function]}
              >
                <img
                  alt="airplane launching"
                  className="travel-shop-item-img shop-item-img"
                  src={Object {}}
                />
              </a>
            </li>
            <li
              className="shop-item cart-shop-item "
              data-sel="welcome-shop-cart"
              title="Open Catalog"
            >
              <a
                aria-label="Shop"
                className="shop-item-anchor cart-shop-item -anchor"
                href="#"
                onClick={[Function]}
              >
                <svg
                  className="cpd-icon"
                  viewBox="0 0 20 17.38"
                >
                  <path
                    d="M19.89,6.09a.47.47,0,0,0-.38-.19h-4L13.75.35A.5.5,0,0,0,13.13,0a.49.49,0,0,0-.32.62L14.45,5.9H5.54L7.19.64A.49.49,0,0,0,6.87,0a.5.5,0,0,0-.62.33L4.51,5.9h-4a.47.47,0,0,0-.38.19.49.49,0,0,0-.1.42L2.55,17a.49.49,0,0,0,.48.38H17a.49.49,0,0,0,.48-.38L20,6.51A.49.49,0,0,0,19.89,6.09Zm-3.31,10.3H3.42l-2.3-9.5H18.88Z"
                  />
                </svg>
                <span
                  className="hidden"
                >
                  <span>
                    common.buttons.openCatalog
                  </span>
                </span>
              </a>
            </li>
          </ul>
          <div
            className="catalog-btn-wrapper"
          >
            <a
              className="gq-btn btn branding-primary-button-inverted"
              data-sel="open-catalog-button"
              onClick={[Function]}
              tabIndex={undefined}
            >
              <span>
                common.buttons.openCatalog
              </span>
            </a>
          </div>
        </div>
      </div>
    </section>
    <section
      className="rules-wrapper"
      id="rules"
      role="region"
    >
      <div
        className="content"
      >
        <span>
          rules.header
        </span>
        <div
          className="rules-content"
        >
          <div
            className="export-rules"
          >
            <a
              className="export-rules-link"
              data-sel="rules-export-button"
              onClick={[Function]}
            >
              <span
                className="btn-export-rules branding-primary-button"
              >
                 
                <svg
                  className="cpd-icon"
                  viewBox="0 0 24 24"
                >
                  <path
                    d="M11.2,19.7c0.2,0.2,0.5,0.3,0.8,0.3c0.3,0,0.6-0.1,0.8-0.3l4.9-6c0.4-0.4,0.4-1,0-1.4c-0.4-0.4-1-0.4-1.4,0l-3.3,4V1 c0-0.6-0.4-1-1-1s-1,0.4-1,1v15.3l-3.3-4c-0.4-0.4-1-0.4-1.4,0c-0.4,0.4-0.4,1,0,1.4L11.2,19.7z M21,22H3c-0.6,0-1,0.4-1,1 c0,0.6,0.4,1,1,1h18c0.6,0,1-0.4,1-1C22,22.4,21.6,22,21,22z"
                  />
                </svg>
                 
              </span>
              <br />
              <span
                className="text-export-rules branding-secondary-text"
              >
                <span>
                  rules.export
                </span>
              </span>
            </a>
          </div>
        </div>
      </div>
    </section>
  </div>
</div>
`;
